[
  {
    "name": "Afghanistan",
    "dial_code": "+93",
    "code": "AF",
    "fr": "Afghanistan"
  },
  { "name": "Albania", "dial_code": "+355", "code": "AL", "fr": "Albanie" },
  {
    "name": "Algeria",
    "dial_code": "+213",
    "code": "DZ",
    "fr": "Alg\u00e9rie"
  },
  {
    "name": "American Samoa",
    "dial_code": "+1 684",
    "code": "AS",
    "fr": "Samoa am\u00e9ricaines"
  },
  { "name": "Andorra", "dial_code": "+376", "code": "AD", "fr": "Andorre" },
  { "name": "Angola", "dial_code": "+244", "code": "AO", "fr": "Angola" },
  { "name": "Anguilla", "dial_code": "+1 264", "code": "AI", "fr": "Anguilla" },
  {
    "name": "Antigua and Barbuda",
    "dial_code": "+1268",
    "code": "AG",
    "fr": "Antigua-et-Barbuda"
  },
  { "name": "Argentina", "dial_code": "+54", "code": "AR", "fr": "Argentine" },
  {
    "name": "Armenia",
    "dial_code": "+374",
    "code": "AM",
    "fr": "Arm\u00e9nie"
  },
  { "name": "Aruba", "dial_code": "+297", "code": "AW", "fr": "Aruba" },
  { "name": "Australia", "dial_code": "+61", "code": "AU", "fr": "Australie" },
  {
    "name": "Austria",
    "dial_code": "+43",
    "code": "AT",
    "fr": "L&#39;Autriche"
  },
  {
    "name": "Azerbaijan",
    "dial_code": "+994",
    "code": "AZ",
    "fr": "Azerba\u00efdjan"
  },
  { "name": "Bahamas", "dial_code": "+1 242", "code": "BS", "fr": "Bahamas" },
  { "name": "Bahrain", "dial_code": "+973", "code": "BH", "fr": "Bahrein" },
  {
    "name": "Bangladesh",
    "dial_code": "+880",
    "code": "BD",
    "fr": "Bangladesh"
  },
  { "name": "Barbados", "dial_code": "+1 246", "code": "BB", "fr": "Barbade" },
  {
    "name": "Belarus",
    "dial_code": "+375",
    "code": "BY",
    "fr": "Bi\u00e9lorussie"
  },
  { "name": "Belgium", "dial_code": "+32", "code": "BE", "fr": "Belgique" },
  { "name": "Belize", "dial_code": "+501", "code": "BZ", "fr": "Belize" },
  { "name": "Benin", "dial_code": "+229", "code": "BJ", "fr": "B\u00e9nin" },
  { "name": "Bermuda", "dial_code": "+1 441", "code": "BM", "fr": "Bermudes" },
  { "name": "Bhutan", "dial_code": "+975", "code": "BT", "fr": "Bhoutan" },
  {
    "name": "Bosnia and Herzegovina",
    "dial_code": "+387",
    "code": "BA",
    "fr": "Bosnie Herz\u00e9govine"
  },
  { "name": "Botswana", "dial_code": "+267", "code": "BW", "fr": "Botswana" },
  { "name": "Brazil", "dial_code": "+55", "code": "BR", "fr": "Br\u00e9sil" },
  {
    "name": "British Indian Ocean Territory",
    "dial_code": "+246",
    "code": "IO",
    "fr": "Territoire britannique de l&#39;oc\u00e9an Indien"
  },
  { "name": "Bulgaria", "dial_code": "+359", "code": "BG", "fr": "Bulgarie" },
  {
    "name": "Burkina Faso",
    "dial_code": "+226",
    "code": "BF",
    "fr": "Burkina Faso"
  },
  { "name": "Burundi", "dial_code": "+257", "code": "BI", "fr": "Burundi" },
  { "name": "Cambodia", "dial_code": "+855", "code": "KH", "fr": "Cambodge" },
  { "name": "Cameroon", "dial_code": "+237", "code": "CM", "fr": "Cameroun" },
  { "name": "Canada", "dial_code": "+1", "code": "CA", "fr": "Canada" },
  { "name": "Cape Verde", "dial_code": "+238", "code": "CV", "fr": "Cap-Vert" },
  {
    "name": "Cayman Islands",
    "dial_code": "+ 345",
    "code": "KY",
    "fr": "\u00celes Ca\u00efmans"
  },
  {
    "name": "Central African Republic",
    "dial_code": "+236",
    "code": "CF",
    "fr": "R\u00e9publique centrafricaine"
  },
  { "name": "Chad", "dial_code": "+235", "code": "TD", "fr": "Tchad" },
  { "name": "Chile", "dial_code": "+56", "code": "CL", "fr": "Chili" },
  { "name": "China", "dial_code": "+86", "code": "CN", "fr": "Chine" },
  {
    "name": "Christmas Island",
    "dial_code": "+61",
    "code": "CX",
    "fr": "L&#39;\u00eele de no\u00ebl"
  },
  { "name": "Colombia", "dial_code": "+57", "code": "CO", "fr": "Colombie" },
  { "name": "Comoros", "dial_code": "+269", "code": "KM", "fr": "Les Comores" },
  { "name": "Congo", "dial_code": "+242", "code": "CG", "fr": "Congo" },
  {
    "name": "Cook Islands",
    "dial_code": "+682",
    "code": "CK",
    "fr": "les \u00celes Cook"
  },
  {
    "name": "Costa Rica",
    "dial_code": "+506",
    "code": "CR",
    "fr": "Costa Rica"
  },
  { "name": "Croatia", "dial_code": "+385", "code": "HR", "fr": "Croatie" },
  { "name": "Cuba", "dial_code": "+53", "code": "CU", "fr": "Cuba" },
  { "name": "Cyprus", "dial_code": "+537", "code": "CY", "fr": "Chypre" },
  {
    "name": "Czech Republic",
    "dial_code": "+420",
    "code": "CZ",
    "fr": "R\u00e9publique Tch\u00e8que"
  },
  { "name": "Denmark", "dial_code": "+45", "code": "DK", "fr": "Danemark" },
  { "name": "Djibouti", "dial_code": "+253", "code": "DJ", "fr": "Djibouti" },
  {
    "name": "Dominica",
    "dial_code": "+1 767",
    "code": "DM",
    "fr": "La Dominique"
  },
  {
    "name": "Dominican Republic",
    "dial_code": "+1 849",
    "code": "DO",
    "fr": "R\u00e9publique Dominicaine"
  },
  {
    "name": "Ecuador",
    "dial_code": "+593",
    "code": "EC",
    "fr": "\u00c9quateur"
  },
  { "name": "Egypt", "dial_code": "+20", "code": "EG", "fr": "Egypte" },
  {
    "name": "El Salvador",
    "dial_code": "+503",
    "code": "SV",
    "fr": "Le Salvador"
  },
  {
    "name": "Equatorial Guinea",
    "dial_code": "+240",
    "code": "GQ",
    "fr": "Guin\u00e9e \u00c9quatoriale"
  },
  {
    "name": "Eritrea",
    "dial_code": "+291",
    "code": "ER",
    "fr": "Erythr\u00e9e"
  },
  { "name": "Estonia", "dial_code": "+372", "code": "EE", "fr": "Estonie" },
  { "name": "Ethiopia", "dial_code": "+251", "code": "ET", "fr": "Ethiopie" },
  {
    "name": "Faroe Islands",
    "dial_code": "+298",
    "code": "FO",
    "fr": "\u00celes F\u00e9ro\u00e9"
  },
  { "name": "Fiji", "dial_code": "+679", "code": "FJ", "fr": "Fidji" },
  { "name": "Finland", "dial_code": "+358", "code": "FI", "fr": "Finlande" },
  { "name": "France", "dial_code": "+33", "code": "FR", "fr": "France" },
  {
    "name": "French Guiana",
    "dial_code": "+594",
    "code": "GF",
    "fr": "Guin\u00e9e Fran\u00e7aise"
  },
  {
    "name": "French Polynesia",
    "dial_code": "+689",
    "code": "PF",
    "fr": "Polyn\u00e9sie fran\u00e7aise"
  },
  { "name": "Gabon", "dial_code": "+241", "code": "GA", "fr": "Gabon" },
  { "name": "Gambia", "dial_code": "+220", "code": "GM", "fr": "Gambie" },
  {
    "name": "Georgia",
    "dial_code": "+995",
    "code": "GE",
    "fr": "G\u00e9orgie"
  },
  { "name": "Germany", "dial_code": "+49", "code": "DE", "fr": "Allemagne" },
  { "name": "Ghana", "dial_code": "+233", "code": "GH", "fr": "Ghana" },
  { "name": "Gibraltar", "dial_code": "+350", "code": "GI", "fr": "Gibraltar" },
  { "name": "Greece", "dial_code": "+30", "code": "GR", "fr": "Gr\u00e8ce" },
  { "name": "Greenland", "dial_code": "+299", "code": "GL", "fr": "Groenland" },
  { "name": "Grenada", "dial_code": "+1 473", "code": "GD", "fr": "Grenade" },
  {
    "name": "Guadeloupe",
    "dial_code": "+590",
    "code": "GP",
    "fr": "Guadeloupe"
  },
  { "name": "Guam", "dial_code": "+1 671", "code": "GU", "fr": "Guam" },
  { "name": "Guatemala", "dial_code": "+502", "code": "GT", "fr": "Guatemala" },
  { "name": "Guinea", "dial_code": "+224", "code": "GN", "fr": "Guin\u00e9e" },
  {
    "name": "Guinea-Bissau",
    "dial_code": "+245",
    "code": "GW",
    "fr": "Guin\u00e9e Bissau"
  },
  { "name": "Guyana", "dial_code": "+595", "code": "GY", "fr": "Guyane" },
  { "name": "Haiti", "dial_code": "+509", "code": "HT", "fr": "Ha\u00efti" },
  { "name": "Honduras", "dial_code": "+504", "code": "HN", "fr": "Honduras" },
  { "name": "Hungary", "dial_code": "+36", "code": "HU", "fr": "Hongrie" },
  { "name": "Iceland", "dial_code": "+354", "code": "IS", "fr": "Islande" },
  { "name": "India", "dial_code": "+91", "code": "IN", "fr": "Inde" },
  {
    "name": "Indonesia",
    "dial_code": "+62",
    "code": "ID",
    "fr": "Indon\u00e9sie"
  },
  { "name": "Iraq", "dial_code": "+964", "code": "IQ", "fr": "Irak" },
  { "name": "Ireland", "dial_code": "+353", "code": "IE", "fr": "Irlande" },
  { "name": "Israel", "dial_code": "+972", "code": "IL", "fr": "Isra\u00ebl" },
  { "name": "Italy", "dial_code": "+39", "code": "IT", "fr": "Italie" },
  {
    "name": "Jamaica",
    "dial_code": "+1 876",
    "code": "JM",
    "fr": "Jama\u00efque"
  },
  { "name": "Japan", "dial_code": "+81", "code": "JP", "fr": "Japon" },
  { "name": "Jordan", "dial_code": "+962", "code": "JO", "fr": "Jordan" },
  {
    "name": "Kazakhstan",
    "dial_code": "+7 7",
    "code": "KZ",
    "fr": "Kazakhstan"
  },
  { "name": "Kenya", "dial_code": "+254", "code": "KE", "fr": "Kenya" },
  { "name": "Kiribati", "dial_code": "+686", "code": "KI", "fr": "Kiribati" },
  { "name": "Kuwait", "dial_code": "+965", "code": "KW", "fr": "Koweit" },
  {
    "name": "Kyrgyzstan",
    "dial_code": "+996",
    "code": "KG",
    "fr": "Kirghizistan"
  },
  { "name": "Latvia", "dial_code": "+371", "code": "LV", "fr": "Lettonie" },
  { "name": "Lebanon", "dial_code": "+961", "code": "LB", "fr": "Liban" },
  { "name": "Lesotho", "dial_code": "+266", "code": "LS", "fr": "Lesotho" },
  {
    "name": "Liberia",
    "dial_code": "+231",
    "code": "LR",
    "fr": "Lib\u00e9ria"
  },
  {
    "name": "Liechtenstein",
    "dial_code": "+423",
    "code": "LI",
    "fr": "Liechtenstein"
  },
  { "name": "Lithuania", "dial_code": "+370", "code": "LT", "fr": "Lituanie" },
  {
    "name": "Luxembourg",
    "dial_code": "+352",
    "code": "LU",
    "fr": "Luxembourg"
  },
  {
    "name": "Madagascar",
    "dial_code": "+261",
    "code": "MG",
    "fr": "Madagascar"
  },
  { "name": "Malawi", "dial_code": "+265", "code": "MW", "fr": "Malawi" },
  { "name": "Malaysia", "dial_code": "+60", "code": "MY", "fr": "Malaisie" },
  { "name": "Maldives", "dial_code": "+960", "code": "MV", "fr": "Maldives" },
  { "name": "Mali", "dial_code": "+223", "code": "ML", "fr": "Mali" },
  { "name": "Malta", "dial_code": "+356", "code": "MT", "fr": "Malte" },
  {
    "name": "Marshall Islands",
    "dial_code": "+692",
    "code": "MH",
    "fr": "Iles Marshall"
  },
  {
    "name": "Martinique",
    "dial_code": "+596",
    "code": "MQ",
    "fr": "Martinique"
  },
  {
    "name": "Mauritania",
    "dial_code": "+222",
    "code": "MR",
    "fr": "Mauritanie"
  },
  { "name": "Mauritius", "dial_code": "+230", "code": "MU", "fr": "Maurice" },
  { "name": "Mayotte", "dial_code": "+262", "code": "YT", "fr": "Mayotte" },
  { "name": "Mexico", "dial_code": "+52", "code": "MX", "fr": "Mexique" },
  { "name": "Monaco", "dial_code": "+377", "code": "MC", "fr": "Monaco" },
  { "name": "Mongolia", "dial_code": "+976", "code": "MN", "fr": "Mongolie" },
  {
    "name": "Montenegro",
    "dial_code": "+382",
    "code": "ME",
    "fr": "Mont\u00e9n\u00e9gro"
  },
  {
    "name": "Montserrat",
    "dial_code": "+1664",
    "code": "MS",
    "fr": "Montserrat"
  },
  { "name": "Morocco", "dial_code": "+212", "code": "MA", "fr": "Maroc" },
  { "name": "Myanmar", "dial_code": "+95", "code": "MM", "fr": "Myanmar" },
  { "name": "Namibia", "dial_code": "+264", "code": "NA", "fr": "Namibie" },
  { "name": "Nauru", "dial_code": "+674", "code": "NR", "fr": "Nauru" },
  { "name": "Nepal", "dial_code": "+977", "code": "NP", "fr": "N\u00e9pal" },
  { "name": "Netherlands", "dial_code": "+31", "code": "NL", "fr": "Pays-Bas" },
  {
    "name": "Netherlands Antilles",
    "dial_code": "+599",
    "code": "AN",
    "fr": "Antilles n\u00e9erlandaises"
  },
  {
    "name": "New Caledonia",
    "dial_code": "+687",
    "code": "NC",
    "fr": "Nouvelle Cal\u00e9donie"
  },
  {
    "name": "New Zealand",
    "dial_code": "+64",
    "code": "NZ",
    "fr": "Nouvelle-Z\u00e9lande"
  },
  { "name": "Nicaragua", "dial_code": "+505", "code": "NI", "fr": "Nicaragua" },
  { "name": "Niger", "dial_code": "+227", "code": "NE", "fr": "Niger" },
  { "name": "Nigeria", "dial_code": "+234", "code": "NG", "fr": "Nigeria" },
  { "name": "Niue", "dial_code": "+683", "code": "NU", "fr": "Niue" },
  {
    "name": "Norfolk Island",
    "dial_code": "+672",
    "code": "NF",
    "fr": "l&#39;ile de Norfolk"
  },
  {
    "name": "Northern Mariana Islands",
    "dial_code": "+1 670",
    "code": "MP",
    "fr": "\u00celes Mariannes du Nord"
  },
  { "name": "Norway", "dial_code": "+47", "code": "NO", "fr": "Norv\u00e8ge" },
  { "name": "Oman", "dial_code": "+968", "code": "OM", "fr": "Oman" },
  { "name": "Pakistan", "dial_code": "+92", "code": "PK", "fr": "Pakistan" },
  { "name": "Palau", "dial_code": "+680", "code": "PW", "fr": "Palau" },
  { "name": "Panama", "dial_code": "+507", "code": "PA", "fr": "Panama" },
  {
    "name": "Papua New Guinea",
    "dial_code": "+675",
    "code": "PG",
    "fr": "Papouasie Nouvelle Guin\u00e9e"
  },
  {
    "name": "Paraguay",
    "dial_code": "+595",
    "code": "PY",
    "fr": "Le Paraguay"
  },
  { "name": "Peru", "dial_code": "+51", "code": "PE", "fr": "P\u00e9rou" },
  {
    "name": "Philippines",
    "dial_code": "+63",
    "code": "PH",
    "fr": "Philippines"
  },
  { "name": "Poland", "dial_code": "+48", "code": "PL", "fr": "Pologne" },
  {
    "name": "Portugal",
    "dial_code": "+351",
    "code": "PT",
    "fr": "le Portugal"
  },
  {
    "name": "Puerto Rico",
    "dial_code": "+1 939",
    "code": "PR",
    "fr": "Porto Rico"
  },
  { "name": "Qatar", "dial_code": "+974", "code": "QA", "fr": "Qatar" },
  { "name": "Romania", "dial_code": "+40", "code": "RO", "fr": "Roumanie" },
  { "name": "Rwanda", "dial_code": "+250", "code": "RW", "fr": "Rwanda" },
  { "name": "Samoa", "dial_code": "+685", "code": "WS", "fr": "Samoa" },
  {
    "name": "San Marino",
    "dial_code": "+378",
    "code": "SM",
    "fr": "Saint Marin"
  },
  {
    "name": "Saudi Arabia",
    "dial_code": "+966",
    "code": "SA",
    "fr": "Arabie Saoudite"
  },
  {
    "name": "Senegal",
    "dial_code": "+221",
    "code": "SN",
    "fr": "S\u00e9n\u00e9gal"
  },
  { "name": "Serbia", "dial_code": "+381", "code": "RS", "fr": "Serbie" },
  {
    "name": "Seychelles",
    "dial_code": "+248",
    "code": "SC",
    "fr": "les Seychelles"
  },
  {
    "name": "Sierra Leone",
    "dial_code": "+232",
    "code": "SL",
    "fr": "Sierra Leone"
  },
  { "name": "Singapore", "dial_code": "+65", "code": "SG", "fr": "Singapour" },
  { "name": "Slovakia", "dial_code": "+421", "code": "SK", "fr": "Slovaquie" },
  {
    "name": "Slovenia",
    "dial_code": "+386",
    "code": "SI",
    "fr": "La Slov\u00e9nie"
  },
  {
    "name": "Solomon Islands",
    "dial_code": "+677",
    "code": "SB",
    "fr": "\u00eeles Salomon"
  },
  {
    "name": "South Africa",
    "dial_code": "+27",
    "code": "ZA",
    "fr": "Afrique du Sud"
  },
  {
    "name": "South Georgia and the South Sandwich Islands",
    "dial_code": "+500",
    "code": "GS",
    "fr": "G\u00e9orgie du Sud et les \u00eeles Sandwich du Sud"
  },
  { "name": "Spain", "dial_code": "+34", "code": "ES", "fr": "Espagne" },
  { "name": "Sri Lanka", "dial_code": "+94", "code": "LK", "fr": "Sri Lanka" },
  { "name": "Sudan", "dial_code": "+249", "code": "SD", "fr": "Soudan" },
  { "name": "Suriname", "dial_code": "+597", "code": "SR", "fr": "Suriname" },
  { "name": "Swaziland", "dial_code": "+268", "code": "SZ", "fr": "Swaziland" },
  { "name": "Sweden", "dial_code": "+46", "code": "SE", "fr": "Su\u00e8de" },
  { "name": "Switzerland", "dial_code": "+41", "code": "CH", "fr": "Suisse" },
  {
    "name": "Tajikistan",
    "dial_code": "+992",
    "code": "TJ",
    "fr": "Tadjikistan"
  },
  {
    "name": "Thailand",
    "dial_code": "+66",
    "code": "TH",
    "fr": "Tha\u00eflande"
  },
  { "name": "Togo", "dial_code": "+228", "code": "TG", "fr": "Aller" },
  {
    "name": "Tokelau",
    "dial_code": "+690",
    "code": "TK",
    "fr": "Tok\u00e9laou"
  },
  { "name": "Tonga", "dial_code": "+676", "code": "TO", "fr": "Tonga" },
  {
    "name": "Trinidad and Tobago",
    "dial_code": "+1 868",
    "code": "TT",
    "fr": "Trinit\u00e9-et-Tobago"
  },
  { "name": "Tunisia", "dial_code": "+216", "code": "TN", "fr": "Tunisie" },
  { "name": "Turkey", "dial_code": "+90", "code": "TR", "fr": "dinde" },
  {
    "name": "Turkmenistan",
    "dial_code": "+993",
    "code": "TM",
    "fr": "Turkm\u00e9nistan"
  },
  {
    "name": "Turks and Caicos Islands",
    "dial_code": "+1 649",
    "code": "TC",
    "fr": "\u00eeles Turques-et-Ca\u00efques"
  },
  { "name": "Tuvalu", "dial_code": "+688", "code": "TV", "fr": "Tuvalu" },
  { "name": "Uganda", "dial_code": "+256", "code": "UG", "fr": "Ouganda" },
  { "name": "Ukraine", "dial_code": "+380", "code": "UA", "fr": "Ukraine" },
  {
    "name": "United Arab Emirates",
    "dial_code": "+971",
    "code": "AE",
    "fr": "Emirats Arabes Unis"
  },
  {
    "name": "United Kingdom",
    "dial_code": "+44",
    "code": "GB",
    "fr": "Royaume-Uni"
  },
  {
    "name": "United States",
    "dial_code": "+1",
    "code": "US",
    "fr": "\u00c9tats Unis"
  },
  { "name": "Uruguay", "dial_code": "+598", "code": "UY", "fr": "Uruguay" },
  {
    "name": "Uzbekistan",
    "dial_code": "+998",
    "code": "UZ",
    "fr": "Ouzbekistan"
  },
  { "name": "Vanuatu", "dial_code": "+678", "code": "VU", "fr": "Vanuatu" },
  {
    "name": "Wallis and Futuna",
    "dial_code": "+681",
    "code": "WF",
    "fr": "Wallis et Futuna"
  },
  { "name": "Yemen", "dial_code": "+967", "code": "YE", "fr": "Y\u00e9men" },
  { "name": "Zambia", "dial_code": "+260", "code": "ZM", "fr": "Zambie" },
  { "name": "Zimbabwe", "dial_code": "+263", "code": "ZW", "fr": "Zimbabwe" },
  {
    "name": "land Islands",
    "dial_code": "",
    "code": "AX",
    "fr": "\u00eeles terrestres"
  },
  {
    "name": "Antarctica",
    "dial_code": null,
    "code": "AQ",
    "fr": "Antarctique"
  },
  {
    "name": "Bolivia, Plurinational State of",
    "dial_code": "+591",
    "code": "BO",
    "fr": "Bolivie, \u00c9tat plurinational de"
  },
  {
    "name": "Brunei Darussalam",
    "dial_code": "+673",
    "code": "BN",
    "fr": "Brunei Darussalam"
  },
  {
    "name": "Cocos (Keeling) Islands",
    "dial_code": "+61",
    "code": "CC",
    "fr": "\u00celes Cocos (Keeling)"
  },
  {
    "name": "Congo, The Democratic Republic of the",
    "dial_code": "+243",
    "code": "CD",
    "fr": "Congo, R\u00e9publique d\u00e9mocratique du"
  },
  {
    "name": "Cote d'Ivoire",
    "dial_code": "+225",
    "code": "CI",
    "fr": "Cote d&#39;Ivoire"
  },
  {
    "name": "Falkland Islands (Malvinas)",
    "dial_code": "+500",
    "code": "FK",
    "fr": "Iles Falkland (Malvinas)"
  },
  { "name": "Guernsey", "dial_code": "+44", "code": "GG", "fr": "Guernesey" },
  {
    "name": "Holy See (Vatican City State)",
    "dial_code": "+379",
    "code": "VA",
    "fr": "Saint-Si\u00e8ge (\u00c9tat de la cit\u00e9 du Vatican)"
  },
  { "name": "Hong Kong", "dial_code": "+852", "code": "HK", "fr": "Hong Kong" },
  {
    "name": "Iran, Islamic Republic of",
    "dial_code": "+98",
    "code": "IR",
    "fr": "Iran (R\u00e9publique islamique d"
  },
  {
    "name": "Isle of Man",
    "dial_code": "+44",
    "code": "IM",
    "fr": "\u00cele de man"
  },
  { "name": "Jersey", "dial_code": "+44", "code": "JE", "fr": "Jersey" },
  {
    "name": "Korea, Democratic People's Republic of",
    "dial_code": "+850",
    "code": "KP",
    "fr": "R\u00e9publique populaire d\u00e9mocratique de Cor\u00e9e"
  },
  {
    "name": "Korea, Republic of",
    "dial_code": "+82",
    "code": "KR",
    "fr": "Cor\u00e9e, R\u00e9publique de"
  },
  {
    "name": "Lao People's Democratic Republic",
    "dial_code": "+856",
    "code": "LA",
    "fr": "R\u00e9publique d\u00e9mocratique populaire lao"
  },
  {
    "name": "Libyan Arab Jamahiriya",
    "dial_code": "+218",
    "code": "LY",
    "fr": "Jamahiriya Arabe Libyenne"
  },
  { "name": "Macao", "dial_code": "+853", "code": "MO", "fr": "Macao" },
  {
    "name": "Macedonia, The Former Yugoslav Republic of",
    "dial_code": "+389",
    "code": "MK",
    "fr": "Mac\u00e9doine, l&#39;ex-R\u00e9publique yougoslave de"
  },
  {
    "name": "Micronesia, Federated States of",
    "dial_code": "+691",
    "code": "FM",
    "fr": "Micron\u00e9sie, \u00c9tats f\u00e9d\u00e9r\u00e9s de"
  },
  {
    "name": "Moldova, Republic of",
    "dial_code": "+373",
    "code": "MD",
    "fr": "Moldova, R\u00e9publique de"
  },
  {
    "name": "Mozambique",
    "dial_code": "+258",
    "code": "MZ",
    "fr": "Mozambique"
  },
  {
    "name": "Palestinian Territory, Occupied",
    "dial_code": "+970",
    "code": "PS",
    "fr": "Territoire palestinien occup\u00e9"
  },
  { "name": "Pitcairn", "dial_code": "+872", "code": "PN", "fr": "Pitcairn" },
  {
    "name": "R\u00e9union",
    "dial_code": "+262",
    "code": "RE",
    "fr": "R\u00e9union"
  },
  { "name": "Russia", "dial_code": "+7", "code": "RU", "fr": "Russie" },
  {
    "name": "Saint Barth\u00e9lemy",
    "dial_code": "+590",
    "code": "BL",
    "fr": "Saint Barth\u00e9lemy"
  },
  {
    "name": "Saint Helena, Ascension and Tristan Da Cunha",
    "dial_code": "+290",
    "code": "SH",
    "fr": "Sainte H\u00e9l\u00e8ne, Ascension et Tristan Da Cunha"
  },
  {
    "name": "Saint Kitts and Nevis",
    "dial_code": "+1 869",
    "code": "KN",
    "fr": "Saint-Christophe-et-Ni\u00e9v\u00e8s"
  },
  {
    "name": "Saint Lucia",
    "dial_code": "+1 758",
    "code": "LC",
    "fr": "Sainte-Lucie"
  },
  {
    "name": "Saint Martin",
    "dial_code": "+590",
    "code": "MF",
    "fr": "Saint Martin"
  },
  {
    "name": "Saint Pierre and Miquelon",
    "dial_code": "+508",
    "code": "PM",
    "fr": "Saint Pierre et Miquelon"
  },
  {
    "name": "Saint Vincent and the Grenadines",
    "dial_code": "+1 784",
    "code": "VC",
    "fr": "Saint-Vincent-et-les-Grenadines"
  },
  {
    "name": "Sao Tome and Principe",
    "dial_code": "+239",
    "code": "ST",
    "fr": "Sao Tom\u00e9 et Principe"
  },
  { "name": "Somalia", "dial_code": "+252", "code": "SO", "fr": "Somalie" },
  {
    "name": "Svalbard and Jan Mayen",
    "dial_code": "+47",
    "code": "SJ",
    "fr": "Svalbard et Jan Mayen"
  },
  {
    "name": "Syrian Arab Republic",
    "dial_code": "+963",
    "code": "SY",
    "fr": "R\u00e9publique arabe syrienne"
  },
  {
    "name": "Taiwan, Province of China",
    "dial_code": "+886",
    "code": "TW",
    "fr": "Taiwan, Province de Chine"
  },
  {
    "name": "Tanzania, United Republic of",
    "dial_code": "+255",
    "code": "TZ",
    "fr": "Tanzanie, R\u00e9publique Unie de"
  },
  {
    "name": "Timor-Leste",
    "dial_code": "+670",
    "code": "TL",
    "fr": "Timor-Leste"
  },
  {
    "name": "Venezuela, Bolivarian Republic of",
    "dial_code": "+58",
    "code": "VE",
    "fr": "Venezuela, R\u00e9publique bolivarienne du"
  },
  { "name": "Viet Nam", "dial_code": "+84", "code": "VN", "fr": "Viet Nam" },
  {
    "name": "Virgin Islands, British",
    "dial_code": "+1 284",
    "code": "VG",
    "fr": "\u00celes vierges britanniques"
  },
  {
    "name": "Virgin Islands, U.S.",
    "dial_code": "+1 340",
    "code": "VI",
    "fr": "\u00celes Vierges am\u00e9ricaines"
  }
]
